<svg width="15" height="15" viewBox="0 0 15 15" fill="none" xmlns="http://www.w3.org/2000/svg">
<g clip-path="url(#clip0)">
<path d="M14.8534 6.03075H14.25V6H7.5V9H11.7394C11.1199 10.746 9.45863 12 7.5 12C5.01413 12 3 9.98588 3 7.5C3 5.01413 5.01413 3 7.5 3C8.64713 3 9.6915 3.432 10.4854 4.13963L12.6064 2.01863C11.2676 0.770625 9.47625 0 7.5 0C3.35738 0 0 3.35738 0 7.5C0 11.6426 3.35738 15 7.5 15C11.6426 15 15 11.6426 15 7.5C15 6.9975 14.9486 6.507 14.8534 6.03075Z" fill="#FFC107"/>
<path d="M0.86438 4.00913L3.32963 5.81663C3.99601 4.16587 5.61038 3 7.50001 3C8.64713 3 9.69151 3.432 10.4854 4.13963L12.6064 2.01863C11.2676 0.770625 9.47626 0 7.50001 0C4.61851 0 2.121 1.626 0.86438 4.00913Z" fill="#FF3D00"/>
<path d="M7.49999 15C9.43649 15 11.1971 14.2586 12.5287 13.0534L10.2071 11.0891C9.45411 11.6588 8.51811 12 7.49999 12C5.54886 12 3.89361 10.7565 3.26961 9.02063L0.823486 10.9043C2.06399 13.3331 4.58511 15 7.49999 15Z" fill="#4CAF50"/>
<path d="M14.8534 6.03075H14.25V6H7.5V9H11.7394C11.442 9.83925 10.9016 10.5615 10.2056 11.0887C10.2071 11.0887 10.2071 11.0887 10.2071 11.0887L12.5288 13.053C12.3649 13.2011 15 11.25 15 7.5C15 6.9975 14.9486 6.507 14.8534 6.03075Z" fill="#1976D2"/>
</g>
<defs>
<clipPath id="clip0">
<rect width="15" height="15" fill="white"/>
</clipPath>
</defs>
</svg>
